{
    "PresetList": [
        {
            "AlignAVStart": true,
            "AudioCopyMask": [],
            "AudioEncoderFallback": "none",
            "AudioLanguageList": [
                "jpn",
                "any",
                "any"
            ],
            "AudioList": [
                {
                    "AudioBitrate": 64,
                    "AudioCompressionLevel": -1.0,
                    "AudioDitherMethod": "auto",
                    "AudioEncoder": "fdk_haac",
                    "AudioMixdown": "stereo",
                    "AudioNormalizeMixLevel": false,
                    "AudioSamplerate": "auto",
                    "AudioTrackDRCSlider": 0.0,
                    "AudioTrackGainSlider": 10.0,
                    "AudioTrackQuality": 3.0,
                    "AudioTrackQualityEnable": false
                }
            ],
            "AudioSecondaryEncoderMode": true,
            "AudioTrackSelectionBehavior": "first",
            "ChapterMarkers": true,
            "ChildrenArray": [],
            "Default": true,
            "FileFormat": "av_mp4",
            "Folder": false,
            "FolderOpen": false,
            "InlineParameterSets": false,
            "MetadataPassthrough": false,
            "Mp4iPodCompatible": false,
            "Optimize": false,
            "PictureAllowUpscaling": false,
            "PictureAutoCrop": true,
            "PictureBottomCrop": 0,
            "PictureChromaSmoothCustom": "",
            "PictureChromaSmoothPreset": "off",
            "PictureChromaSmoothTune": "tiny",
            "PictureColorspaceCustom": "",
            "PictureColorspacePreset": "off",
            "PictureCombDetectCustom": "",
            "PictureCombDetectPreset": "off",
            "PictureCropMode": 0,
            "PictureDARWidth": 1280,
            "PictureDeblockCustom": "qp=0:mode=2",
            "PictureDeblockPreset": "off",
            "PictureDeblockTune": "medium",
            "PictureDeinterlaceCustom": "",
            "PictureDeinterlaceFilter": "off",
            "PictureDeinterlacePreset": "",
            "PictureDenoiseCustom": "",
            "PictureDenoiseFilter": "off",
            "PictureDenoisePreset": "",
            "PictureDenoiseTune": "animation",
            "PictureDetelecine": "off",
            "PictureDetelecineCustom": "",
            "PictureForceHeight": 0,
            "PictureForceWidth": 0,
            "PictureHeight": 720,
            "PictureItuPAR": false,
            "PictureKeepRatio": true,
            "PictureLeftCrop": 0,
            "PictureModulus": 2,
            "PicturePAR": "auto",
            "PicturePARHeight": 1,
            "PicturePARWidth": 1,
            "PicturePadBottom": 0,
            "PicturePadColor": "black",
            "PicturePadLeft": 0,
            "PicturePadMode": "none",
            "PicturePadRight": 0,
            "PicturePadTop": 0,
            "PictureRightCrop": 0,
            "PictureRotate": "angle=0:hflip=0",
            "PictureSharpenCustom": "",
            "PictureSharpenFilter": "lapsharp",
            "PictureSharpenPreset": "medium",
            "PictureSharpenTune": "animation",
            "PictureTopCrop": 0,
            "PictureUseMaximumSize": true,
            "PictureWidth": 1280,
            "PresetDescription": "Animegrimoire preset with x265",
            "PresetDisabled": false,
            "PresetName": "x265_Animegrimoire",
            "SubtitleAddCC": false,
            "SubtitleAddForeignAudioSearch": true,
            "SubtitleAddForeignAudioSubtitle": true,
            "SubtitleBurnBDSub": false,
            "SubtitleBurnBehavior": "first",
            "SubtitleBurnDVDSub": false,
            "SubtitleLanguageList": [
                "eng",
                "any"
            ],
            "SubtitleTrackSelectionBehavior": "none",
            "Type": 1,
            "UsesPictureFilters": true,
            "VideoAvgBitrate": 512,
            "VideoColorMatrixCodeOverride": 0,
            "VideoEncoder": "x265",
            "VideoFramerate": "auto",
            "VideoFramerateMode": "cfr",
            "VideoGrayScale": false,
            "VideoHWDecode": 0,
            "VideoLevel": "4.1",
            "VideoMultiPass": true,
            "VideoOptionExtra": "bframes=8:psy-rd=1.5:aq-mode=3:aq-strength=0.8:deblock=1,1",
            "VideoPreset": "slow",
            "VideoProfile": "main",
            "VideoQSVDecode": false,
            "VideoQualitySlider": 20.0,
            "VideoQualityType": 1,
            "VideoScaler": "swscale",
            "VideoTune": "animation",
            "VideoTurboMultiPass": true,
            "x264Option": "bframes=3:deblock=0,0:ref=16:aq-mode=3:aq-strength=0.6:trellis=1:subme=10:vbv-bufsize=78125:vbv-maxrate=62500:qpmin=10:qpmax=51:b-adapt=2:direct=auto:analyse=all:me=umh:merange=32:psy-rd=0.5,0:rc-lookahead=250:level=4.1",
            "x264UseAdvancedOptions": true
        }
    ],
    "VersionMajor": 56,
    "VersionMicro": 0,
    "VersionMinor": 0
}